{
  "full": {
    "include": {},
    "exclude": ["**/*.js.map", "**/python3-old"]
  },
  "lite": {
    "include": {},
    "exclude": []
  },
  "minimal": {
    "include": {
      "**/mathjax": [
        "MathJax.js",
        "config/TeX-AMS-MML_HTMLorMML-full.js",
        "config/Safe.js",
        "extensions/MathML/content-mathml.js",
        "extensions/Safe.js",
        "jax/output/HTML-CSS/fonts/STIX-Web/**/*",
        "fonts/HTML-CSS/STIX-Web/**/*"
      ],
      "**/theme/assets/img": [
        "basthon-console.svg",
        "basthon.svg",
        "home.svg",
        "basthon-notebook.svg",
        "favicon.png"
      ],
      "**/assets/*/python3/modules": ["IPython-0.0.1-py3-none-any.whl"]
    },
    "exclude": [
      "**/about.html",
      "**/contrib.html",
      "**/desktop.html",
      "**/doc.html",
      "**/galerie.html",
      "**/theme/assets/css/galerie.css",
      "**/theme/assets/font/open-sans/Apache License.txt",
      "**/console/ocaml",
      "**/notebook/ocaml",
      "**/notebook/api/contents/ocaml",
      "**/notebook/kernelspecs/ocaml",
      "**/examples",
      "**/theme/assets/pdf"
    ]
  },
  "bnsi": {
    "include": {},
    "exclude": []
  }
}
